[gd_scene load_steps=3 format=2]

[sub_resource type="RectangleShape2D" id=1]
size = Vector2( 437, 88 )

[sub_resource type="RectangleShape2D" id=2]
size = Vector2( 142, 169 )

[node name="SidescrollingTestEnvironment" type="Node2D"]

[node name="Platform" type="StaticBody2D" parent="."]
position = Vector2( 88, 239 )

[node name="CollisionShape2D" type="CollisionShape2D" parent="Platform"]
shape = SubResource( 1 )

[node name="Wall" type="StaticBody2D" parent="."]
position = Vector2( 88, 239 )

[node name="CollisionShape2D" type="CollisionShape2D" parent="Wall"]
position = Vector2( 306, -184 )
shape = SubResource( 2 )

[node name="Camera2D" type="Camera2D" parent="."]
current = true
